<?xml version="1.0" encoding="utf-8"?>
<!-- Generator: Adobe Illustrator 17.1.0, SVG Export Plug-In . SVG Version: 6.00 Build 0)  -->
<!DOCTYPE svg PUBLIC "-//W3C//DTD SVG 1.1//EN" "http://www.w3.org/Graphics/SVG/1.1/DTD/svg11.dtd">
<svg version="1.1" id="Camada_1" xmlns="http://www.w3.org/2000/svg" xmlns:xlink="http://www.w3.org/1999/xlink" x="0px" y="0px"
	 viewBox="0 0 30 23" enable-background="new 0 0 30 23" xml:space="preserve">
<g>
	<path fill="#381B10" d="M0.5,22.1c0-0.2,0-0.3,0-0.5c0.1-0.1,0.2-0.2,0.2-0.2c1.7-3.6,4.3-6.4,7.3-8.8c3.9-3.2,8.3-5.5,12.9-7.3
		c0.2-0.1,0.3-0.2,0.4-0.2C13.7,5.2,7.4,7.8,2.4,13.5c0-1.1-0.1-2,0-2.9c0.2-2.4,1.1-4.5,2.8-6.2c2.2-2.2,5-3.3,8-3.9
		c1.1-0.2,2.2-0.3,3.4-0.5c1.3,0,2.7,0,3.9,0c0.2,0,0.3,0.1,0.5,0.1c1.8,0.2,3.6,0.4,5.4,0.7c1.1,0.2,2.1,0.7,3.2,1.1V2
		c-0.1,0.1-0.2,0.2-0.3,0.2c-2.5,1.4-4.3,3.6-5.6,6.1c-0.9,1.7-1.7,3.4-2.6,5.1c-1.8,3.3-4.5,5.1-8.4,5.1c-2.1-0.1-4-0.5-6-1.2
		c-0.4-0.2-0.6-0.1-0.9,0.2c-1,1.6-2,3.2-3,4.7c-0.2,0.2-0.4,0.5-0.6,0.8c-0.2,0-0.4,0-0.6,0C1.3,22.7,0.9,22.4,0.5,22.1z"/>
</g>
</svg>
